^C:\USERS\ASUS\DESKTOP\ASD_LAB2\ASD_LAB2\ASD_LAB2.CPP
C:\USERS\ASUS\DESKTOP\ASD_LAB2\ASD_LAB2\DEBUG\VC142.PDB
C:\USERS\ASUS\DESKTOP\ASD_LAB2\ASD_LAB2\DEBUG\VC142.IDB
C:\USERS\ASUS\DESKTOP\ASD_LAB2\ASD_LAB2\DEBUG\ASD_LAB2.OBJ
