^C:\USERS\ASUS\DESKTOP\ASD_LAB2\ASD_LAB2\DEBUG\ASD_LAB2.OBJ
C:\USERS\ASUS\DESKTOP\ASD_LAB2\DEBUG\ASD_LAB2.EXE
C:\USERS\ASUS\DESKTOP\ASD_LAB2\DEBUG\ASD_LAB2.ILK
C:\USERS\ASUS\DESKTOP\ASD_LAB2\DEBUG\ASD_LAB2.PDB
