^C:\USERS\ASUS\SOURCE\REPOS\ACD_LAB1\ASD_EX3\ASD_EX3.CPP
C:\USERS\ASUS\SOURCE\REPOS\ACD_LAB1\ASD_EX3\DEBUG\VC142.PDB
C:\USERS\ASUS\SOURCE\REPOS\ACD_LAB1\ASD_EX3\DEBUG\VC142.IDB
C:\USERS\ASUS\SOURCE\REPOS\ACD_LAB1\ASD_EX3\DEBUG\ASD_EX3.OBJ
