^C:\USERS\ASUS\SOURCE\REPOS\ASD_LAB3\EX_1\EX_1.CPP
C:\USERS\ASUS\SOURCE\REPOS\ASD_LAB3\EX_1\DEBUG\VC142.PDB
C:\USERS\ASUS\SOURCE\REPOS\ASD_LAB3\EX_1\DEBUG\VC142.IDB
C:\USERS\ASUS\SOURCE\REPOS\ASD_LAB3\EX_1\DEBUG\EX_1.OBJ
