^C:\USERS\ASUS\DESKTOP\ASD_LAB4\EX_3\EX_3.CPP
C:\USERS\ASUS\DESKTOP\ASD_LAB4\EX_3\DEBUG\VC142.PDB
C:\USERS\ASUS\DESKTOP\ASD_LAB4\EX_3\DEBUG\VC142.IDB
C:\USERS\ASUS\DESKTOP\ASD_LAB4\EX_3\DEBUG\EX_3.OBJ
