^C:\USERS\ASUS\DESKTOP\ASD_LAB4\EX_2\DEBUG\CLIST.OBJ|C:\USERS\ASUS\DESKTOP\ASD_LAB4\EX_2\DEBUG\EX_1_2.OBJ
/OUT:"C:\USERS\ASUS\DESKTOP\ASD_LAB4\DEBUG\EX_1-2.EXE" /INCREMENTAL /NOLOGO KERNEL32.LIB USER32.LIB GDI32.LIB WINSPOOL.LIB COMDLG32.LIB ADVAPI32.LIB SHELL32.LIB OLE32.LIB OLEAUT32.LIB UUID.LIB ODBC32.LIB ODBCCP32.LIB /MANIFEST /MANIFESTUAC:"level='asInvoker' uiAccess='false'" /manifest:embed /DEBUG:FASTLINK /PDB:"C:\USERS\ASUS\DESKTOP\ASD_LAB4\DEBUG\EX_1-2.PDB" /SUBSYSTEM:CONSOLE /TLBID:1 /DYNAMICBASE /NXCOMPAT /IMPLIB:"C:\USERS\ASUS\DESKTOP\ASD_LAB4\DEBUG\EX_1-2.LIB" /MACHINE:X86 DEBUG\CLIST.OBJ
DEBUG\EX_1_2.OBJ
